…
``` r
long_study
```

    ## # A tibble: 160 x 4
    ##    arm   subject_id week_number observation
    ##    <chr> <chr>      <chr>             <dbl>
    ##  1 con   01         week_1             0.2 
    ##  2 con   01         week_2            -1.31
    ##  3 con   01         week_3             0.66
    ##  4 con   01         week_4             1.96
    ##  5 con   01         week_5             0.23
    ##  6 con   01         week_6             1.09
    ##  7 con   01         week_7             0.05
    ##  8 con   01         week_8             1.94
    ##  9 con   02         week_1             1.13
    ## 10 con   02         week_2            -0.88
    ## # … with 150 more rows
…
